<svg id="phone-call" xmlns="http://www.w3.org/2000/svg" width="22.562" height="22.609" viewBox="0 0 22.562 22.609">
  <g id="Сгруппировать_2618" data-name="Сгруппировать 2618" transform="translate(0 0)">
    <path id="Контур_5922" data-name="Контур 5922" d="M22.509,16.593l-3.155-3.155a2.1,2.1,0,0,0-3.493.789,2.147,2.147,0,0,1-2.479,1.352c-2.254-.563-5.3-3.493-5.86-5.86A2.042,2.042,0,0,1,8.874,7.24a2.1,2.1,0,0,0,.789-3.493L6.508.592a2.251,2.251,0,0,0-3.042,0L1.324,2.733c-2.141,2.254.225,8.226,5.522,13.522s11.268,7.775,13.522,5.521l2.141-2.141A2.25,2.25,0,0,0,22.509,16.593Z" transform="translate(-0.539 0)" fill="#004f97"/>
  </g>
</svg>
