<svg xmlns="http://www.w3.org/2000/svg" xmlns:xlink="http://www.w3.org/1999/xlink" width="96.32" height="85.661" viewBox="0 0 96.32 85.661">
  <defs>
    <linearGradient id="linear-gradient" x1="0.5" x2="0.5" y2="1" gradientUnits="objectBoundingBox">
      <stop offset="0" stop-color="#172"/>
      <stop offset="1" stop-color="#093c11"/>
    </linearGradient>
    <filter id="Контур_3989" x="0" y="0" width="55.304" height="85.661" filterUnits="userSpaceOnUse">
      <feOffset dy="3" input="SourceAlpha"/>
      <feGaussianBlur stdDeviation="3" result="blur"/>
      <feFlood flood-opacity="0.161"/>
      <feComposite operator="in" in2="blur"/>
      <feComposite in="SourceGraphic"/>
    </filter>
    <filter id="Контур_3990" x="41.016" y="0" width="55.304" height="85.661" filterUnits="userSpaceOnUse">
      <feOffset dy="3" input="SourceAlpha"/>
      <feGaussianBlur stdDeviation="3" result="blur-2"/>
      <feFlood flood-opacity="0.161"/>
      <feComposite operator="in" in2="blur-2"/>
      <feComposite in="SourceGraphic"/>
    </filter>
  </defs>
  <g id="right-quotes-symbol" transform="translate(9 6)">
    <g id="Сгруппировать_807" data-name="Сгруппировать 807">
      <g transform="matrix(1, 0, 0, 1, -9, -6)" filter="url(#Контур_3989)">
        <path id="Контур_3989-2" data-name="Контур 3989" d="M266.079,83.562c0,.008,0,.017,0,.025a18.694,18.694,0,1,0,12.607-17.625c4.195-24.063,22.959-39.581,5.565-26.809C264.961,53.316,266.057,83.019,266.079,83.562Z" transform="translate(-257.06 -28.57)" fill="url(#linear-gradient)"/>
      </g>
      <g transform="matrix(1, 0, 0, 1, -9, -6)" filter="url(#Контур_3990)">
        <path id="Контур_3990-2" data-name="Контур 3990" d="M18.66,64.944a18.574,18.574,0,0,0-6.038,1.019c4.2-24.063,22.96-39.581,5.566-26.809C-1.1,53.316,0,83.019.018,83.562c0,.008,0,.017,0,.025A18.644,18.644,0,1,0,18.66,64.944Z" transform="translate(50.02 -28.57)" fill="url(#linear-gradient)"/>
      </g>
    </g>
  </g>
</svg>
